…
``` r
#Based on your visualization, do the data appear to support Buzzfeed’s claim? I would still say yes. The majority of USA winners are U.S. born (which is not surprising), but there is a certain number of foreign born winners in each category. So we could say that immigration is important to  science. 
```

…

### Exercise 6

``` r
#for science prizes only
nobel_living_science %>% 
  filter(country=="USA" & born_country!="USA") %>% select(born_country) %>% group_by(born_country) %>% dplyr::count(sort = TRUE)
```

    ## # A tibble: 21 × 2
    ## # Groups:   born_country [21]
    ##    born_country       n
    ##    <chr>          <int>
    ##  1 Germany            7
    ##  2 United Kingdom     7
    ##  3 China              5
    ##  4 Canada             4
    ##  5 Japan              3
    ##  6 Australia          2
    ##  7 Israel             2
    ##  8 Norway             2
    ##  9 Austria            1
    ## 10 Finland            1
    ## # … with 11 more rows
…
